"Resource/UI/invpanel.res"
{
 "invpanel"
	{
	 "ControlName"  "CInvPanel"
	 "fieldName"  "invpanel"
	 "xpos"  "0"
	 "ypos"  "0"
	 "wide"  "640"
	 "tall"  "480"
	 "autoResize"  "0"
	 "pinCorner"  "0"
	 "visible"  "1"
	 "enabled"  "1"
	 "tabPosition"  "0"
	 "settitlebarvisible"  "0"
	 "title"  "#Frame_Untitled"
	}
}