// Small Machine Gun 1

WeaponData
{
	// Weapon data is loaded by both the Game and Client DLLs.
	"printname"	"#M4A1"
	"viewmodel"				"models/weapons/v_rif_m4a1.mdl"
	"playermodel"			"models/weapons/w_rif_m4a1.mdl"	//FIXME: 
	"anim_prefix"			"smg2"
	"bucket"				"3"
	"bucket_position"		"0"
	//"weapon_category"		"12"

	"clip_size"				"30"
	"clip2_size"			"-1"

	"default_clip"			"30"
	"default_clip2"			"-1"

	"primary_ammo"			"AR2"
	"secondary_ammo"		"None"

	"weight"				"3"
	"item_flags"			"ITEM_FLAG_SELECTONEMPTY"
	"builtrighthanded"		"0"
	"allowflipping"			"1"
	
	// Sounds for the weapon. There is a max of 16 sounds per category (i.e. max 16 "single_shot" sounds)
	SoundData
	{
		"empty"				"Default.ClipEmpty_Rifle"
		"single_shot"		"Weapon_M4A1.Single"
		"single_shot_npc"	"Weapon_M4A1.Single"
		"special1"			"Weapon_M4A1.Silenced"
	}

	// Weapon Sprite data is loaded by the Client DLL.
	TextureData
	{
		"weapon"
		{
				"font"		"WeaponIcons"
				"character"	"a"
		}
		"weapon_s"
		{	
				"font"		"WeaponIconsSelected"
				"character"	"a"
		}
		"ammo"
		{
				"font"		"WeaponIcons"
				"character"	"r"
		}
		"crosshair"
		{
				"font"		"Crosshairs"
				"character"	"Q"
		}
		"autoaim"
		{
				"file"		"sprites/crosshairs"
				"x"			"0"
				"y"			"48"
				"width"		"24"
				"height"	"24"
		}
	}
}